Worksheet 1 - Your data budget – Termeh Shafie
…
── Conflicts ───────────────────────────────────────── tidymodels_conflicts() ──
✖ purrr::discard() masks scales::discard()
✖ dplyr::filter()  masks stats::filter()
✖ dplyr::lag()     masks stats::lag()
✖ recipes::step()  masks stats::step()

library(forested)

forested

# A tibble: 7,107 × 19
   forested  year elevation eastness northness roughness tree_no_tree dew_temp
   <fct>    <dbl>     <dbl>    <dbl>     <dbl>     <dbl> <fct>           <dbl>
 1 Yes       2005       881       90        43        63 Tree             0.04
 2 Yes       2005       113      -25        96        30 Tree             6.4 
 3 No        2005       164      -84        53        13 Tree             6.06
 4 Yes       2005       299       93        34         6 No tree          4.43
 5 Yes       2005       806       47       -88        35 Tree             1.06
 6 Yes       2005       736      -27       -96        53 Tree             1.35
 7 Yes       2005       636      -48        87         3 No tree          1.42
 8 Yes       2005       224      -65       -75         9 Tree             6.39
 9 Yes       2005        52      -62        78        42 Tree             6.5 
10 Yes       2005      2240      -67       -74        99 No tree         -5.63
# ℹ 7,097 more rows
# ℹ 11 more variables: precip_annual <dbl>, temp_annual_mean <dbl>,
#   temp_annual_min <dbl>, temp_annual_max <dbl>, temp_january_min <dbl>,
#   vapor_min <dbl>, vapor_max <dbl>, canopy_cover <dbl>, lon <dbl>, lat <dbl>,
#   land_type <fct>
…
