Termeh Shafie - Worksheet 2 - What makes a model?
…
Computational engine: rpart 

Predict with your model

tree_fit <-
  workflow(forested ~ ., tree_spec) %>% 
  fit(data = forested_train) 

Your turn

Run:

predict(tree_fit, new_data = forested_test)

# A tibble: 1,422 × 1
   .pred_class
   <fct>      
 1 Yes        
 2 Yes        
 3 No         
 4 No         
 5 No         
 6 Yes        
 7 Yes        
 8 Yes        
 9 Yes        
10 Yes        
# ℹ 1,412 more rows

What do you notice about the structure of the result?

Your turn

Run:

augment(tree_fit, new_data = forested_test)

# A tibble: 1,422 × 22
   .pred_class .pred_Yes .pred_No forested  year elevation eastness northness
   <fct>           <dbl>    <dbl> <fct>    <dbl>     <dbl>    <dbl>     <dbl>
 1 Yes            0.902    0.0979 No        2005       164      -84        53
 2 Yes            0.902    0.0979 Yes       2005       299       93        34
 3 No             0.0778   0.922  Yes       2005       636      -48        87
 4 No             0.0778   0.922  Yes       2005       224      -65       -75
 5 No             0.424    0.576  Yes       2005      2240      -67       -74
 6 Yes            0.902    0.0979 Yes       2004      1044       96       -26
 7 Yes            0.902    0.0979 Yes       2003      1031      -49        86
 8 Yes            0.902    0.0979 Yes       2005      1330       99         7
 9 Yes            0.902    0.0979 Yes       2005      1423       46        88
10 Yes            0.902    0.0979 Yes       2014       546      -92       -38
# ℹ 1,412 more rows
# ℹ 14 more variables: roughness <dbl>, tree_no_tree <fct>, dew_temp <dbl>,
#   precip_annual <dbl>, temp_annual_mean <dbl>, temp_annual_min <dbl>,
#   temp_annual_max <dbl>, temp_january_min <dbl>, vapor_min <dbl>,
#   vapor_max <dbl>, canopy_cover <dbl>, lon <dbl>, lat <dbl>, land_type <fct>
…
