Worksheet 3 - Evaluating models – Termeh Shafie
…
Compute and plot an ROC curve for your current model.

What data are being used for this ROC curve plot?

# Your code here!

Dangers of overfitting

Repredicting the training set, bad!

forested_fit %>%
  augment(forested_train)

# A tibble: 5,685 × 22
   .pred_class .pred_Yes .pred_No forested  year elevation eastness northness
   <fct>           <dbl>    <dbl> <fct>    <dbl>     <dbl>    <dbl>     <dbl>
 1 No             0.0114   0.989  No        2016       464       -5       -99
 2 Yes            0.636    0.364  Yes       2016       166       92        37
 3 No             0.0114   0.989  No        2016       644      -85       -52
 4 Yes            0.977    0.0226 Yes       2014      1285        4        99
 5 Yes            0.977    0.0226 Yes       2013       822       87        48
 6 Yes            0.808    0.192  Yes       2017         3        6       -99
 7 Yes            0.977    0.0226 Yes       2014      2041      -95        28
 8 Yes            0.977    0.0226 Yes       2015      1009       -8        99
 9 No             0.0114   0.989  No        2017       436      -98        19
10 No             0.0114   0.989  No        2018       775       63        76
# ℹ 5,675 more rows
# ℹ 14 more variables: roughness <dbl>, tree_no_tree <fct>, dew_temp <dbl>,
#   precip_annual <dbl>, temp_annual_mean <dbl>, temp_annual_min <dbl>,
#   temp_annual_max <dbl>, temp_january_min <dbl>, vapor_min <dbl>,
#   vapor_max <dbl>, canopy_cover <dbl>, lon <dbl>, lat <dbl>, land_type <fct>
…
If you want to analyze the assessment set (i.e. holdout) predictions, then you need to adjust the control object and tell it to save them:

# Save the assessment set results
ctrl_forested <- control_resamples(save_pred = TRUE)

forested_res <- fit_resamples(forested_wflow, forested_folds, control = ctrl_forested)

forested_preds <- collect_predictions(forested_res)
forested_preds

# A tibble: 5,685 × 7
   .pred_class .pred_Yes .pred_No id      .row forested .config             
   <fct>           <dbl>    <dbl> <chr>  <int> <fct>    <chr>               
 1 Yes           0.5       0.5    Fold01     2 Yes      Preprocessor1_Model1
 2 Yes           0.982     0.0178 Fold01     5 Yes      Preprocessor1_Model1
 3 No            0.00790   0.992  Fold01     9 No       Preprocessor1_Model1
 4 No            0.4       0.6    Fold01    14 No       Preprocessor1_Model1
 5 Yes           0.870     0.130  Fold01    18 Yes      Preprocessor1_Model1
 6 Yes           0.982     0.0178 Fold01    59 Yes      Preprocessor1_Model1
 7 No            0.00790   0.992  Fold01    67 No       Preprocessor1_Model1
 8 Yes           0.982     0.0178 Fold01    89 Yes      Preprocessor1_Model1
 9 No            0.00790   0.992  Fold01    94 No       Preprocessor1_Model1
10 Yes           0.982     0.0178 Fold01   111 Yes      Preprocessor1_Model1
# ℹ 5,675 more rows

Bootstrapping

set.seed(3214)
bootstraps(forested_train)

# Bootstrap sampling 
# A tibble: 25 × 2
   splits              id         
   <list>              <chr>      
 1 <split [5685/2075]> Bootstrap01
 2 <split [5685/2093]> Bootstrap02
 3 <split [5685/2129]> Bootstrap03
 4 <split [5685/2093]> Bootstrap04
 5 <split [5685/2111]> Bootstrap05
 6 <split [5685/2105]> Bootstrap06
 7 <split [5685/2139]> Bootstrap07
 8 <split [5685/2079]> Bootstrap08
 9 <split [5685/2113]> Bootstrap09
10 <split [5685/2101]> Bootstrap10
# ℹ 15 more rows
…
collect_metrics(final_fit)

# A tibble: 3 × 4
  .metric     .estimator .estimate .config             
  <chr>       <chr>          <dbl> <chr>               
1 accuracy    binary        0.911  Preprocessor1_Model1
2 roc_auc     binary        0.970  Preprocessor1_Model1
3 brier_class binary        0.0651 Preprocessor1_Model1

Test set predictions:

collect_predictions(final_fit)

# A tibble: 1,422 × 7
   .pred_class .pred_Yes .pred_No id                .row forested .config       
   <fct>           <dbl>    <dbl> <chr>            <int> <fct>    <chr>         
 1 Yes             0.828   0.172  train/test split     3 No       Preprocessor1…
 2 Yes             0.707   0.293  train/test split     4 Yes      Preprocessor1…
 3 No              0.286   0.714  train/test split     7 Yes      Preprocessor1…
 4 Yes             0.556   0.444  train/test split     8 Yes      Preprocessor1…
 5 Yes             0.553   0.447  train/test split    10 Yes      Preprocessor1…
 6 Yes             0.977   0.0229 train/test split    11 Yes      Preprocessor1…
 7 Yes             0.969   0.0307 train/test split    12 Yes      Preprocessor1…
 8 Yes             0.959   0.0412 train/test split    14 Yes      Preprocessor1…
 9 Yes             0.938   0.0624 train/test split    15 Yes      Preprocessor1…
10 Yes             0.976   0.0244 train/test split    19 Yes      Preprocessor1…
# ℹ 1,412 more rows
…
